Assignment 11 | Sentiment Analysis
…
Sentiment analysis is a type of text mining which aims to determine the opinion and subjectivity of its content. in Text Mining with R, Chapter 2 Book the author provide some example code how to perfrom a sentiment analysis using tidytext, tidyr and dplyr packages. the goal of this assignment is to explore these examples, and extend one the codes provided.

Libraries

tidytext() package is used for text mining for word processing and sentiment analysis using dplyr, ggplot2, and other tidy tools.

library(textdata)
library(tidytext)
library(tidyr)

The tidytext package provides access to several sentiment lexicons Lets check some of the lexicons using get_sentiment get_sentiments function.

get_sentiments("afinn")

## # A tibble: 2,477 x 2
##    word       value
##    <chr>      <dbl>
##  1 abandon       -2
##  2 abandoned     -2
##  3 abandons      -2
##  4 abducted      -2
##  5 abduction     -2
##  6 abductions    -2
##  7 abhor         -3
##  8 abhorred      -3
##  9 abhorrent     -3
## 10 abhors        -3
## #  with 2,467 more rows
…
Now that the text is in a tidy format, the sentiment analysis can be performed.

# Count the most common joy words in Emma? 
nrc_joy <- get_sentiments("nrc") %>% 
  filter(sentiment == "joy")

tidy_books %>%
  filter(book == "Emma") %>%
  inner_join(nrc_joy) %>%
  count(word, sort = TRUE)

## Joining, by = "word"

## # A tibble: 303 x 2
##    word        n
##    <chr>   <int>
##  1 good      359
##  2 young     192
##  3 friend    166
##  4 hope      143
##  5 happy     125
##  6 love      117
##  7 deal       92
##  8 found      92
##  9 present    89
## 10 kind       82
## #  with 293 more rows
…
Count the words

    positive_senti <- get_sentiments("bing") %>%
     filter(sentiment == "positive")
    tidyData %>%
     filter(book == "Emma") %>%
     semi_join(positive_senti) %>%
     count(word, sort = TRUE)

## Joining, by = "word"

## # A tibble: 668 x 2
##    word         n
##    <chr>    <int>
##  1 well       401
##  2 good       359
##  3 great      264
##  4 like       200
##  5 better     173
##  6 enough     129
##  7 happy      125
##  8 love       117
##  9 pleasure   115
## 10 right       92
## #  with 658 more rows
…
