Project 2
…
Calculate the average

Here we well cacluate a new variable (average), and select the Term column by terms

mutate(performance_tbl3, average = (test.1.marks + test.2.marks)/2) %>%
select(name, Term, average) %>%
group_by(name)

## # A tibble: 30 x 3
## # Groups:   name [5]
##    name  Term   average
##    <fct> <chr>    <dbl>
##  1 Mike  term.1    80.5
##  2 Mike  term.1    80.5
##  3 Mike  term.2    82  
##  4 Mike  term.2    82  
##  5 Mike  term.3    88.5
##  6 Mike  term.3    88.5
##  7 Linda term.1    87.5
##  8 Linda term.1    87.5
##  9 Linda term.2    86  
## 10 Linda term.2    86  
## #  with 20 more rows

Data III : Coronona Virus data

Load the data from the data source

coronaDB <- read.csv("https://raw.githubusercontent.com/CryptoKass/ncov-data/master/world.latest.bno.csv")
tbl_df(coronaDB)

## # A tibble: 26 x 6
##        X country   cases deaths notes            links                          
##    <int> <fct>     <int>  <int> <fct>            <fct>                          
##  1     0 China     59804   1365 0                https://bnonews.com/index.php/
##  2     1 Hong Kong    50      1 4 critical, 2 s https://edition.cnn.com/asia/l
##  3     2 Taiwan       18      0 1 recovered      https://www.cdc.gov.tw/Bulleti
##  4     3 Macau        10      0 1 recovered      https://news.gov.mo/detail/zh-
##  5     4 Japan       247      0 4 serious, 4 re https://www3.nhk.or.jp/nhkworl
##  6     5 Singapore    50      0 8 critical, 15  https://www.moh.gov.sg/news-hi
##  7     6 Thailand     33      0 1 serious, 10 r https://pr.moph.go.th/?url=pr/
##  8     7 South Ko    28      0 7 recovered      https://en.yna.co.kr/view/AEN2
##  9     8 Malaysia     18      0 3 recovered      https://www.channelnewsasia.co
## 10     9 Australia    15      0 8 recovered      https://www.smh.com.au/nationa
## #  with 16 more rows
…
